<?xml version="1.0" encoding="UTF-8"?>
<svg width="20px" height="19px" viewBox="0 0 20 19" version="1.1" xmlns="http://www.w3.org/2000/svg" xmlns:xlink="http://www.w3.org/1999/xlink">
    <!-- Generator: Sketch 61.2 (89653) - https://sketch.com -->
    <title>ic_ilibrary</title>
    <desc>Created with Sketch.</desc>
    <g id="Page-1" stroke="none" stroke-width="1" fill="none" fill-rule="evenodd">
        <g id="3" transform="translate(-15.000000, -315.000000)">
            <g id="side-menu-A">
                <g id="ilibrary-&amp;-epustaka" transform="translate(0.000000, 300.000000)">
                    <g id="icon-menu">
                        <g id="ic_ilibrary" transform="translate(9.000000, 9.000000)">
                            <path d="M8.3892,23.0034 L8.7222,22.0034 L23.2812,22.0034 L23.6142,23.0034 L8.3892,23.0034 Z M11.0022,13.0034 L13.0022,13.0034 L13.0022,20.0034 L11.0022,20.0034 L11.0022,13.0034 Z M9.0022,10.6974 L16.0022,8.0714 L23.0022,10.6974 L23.0022,11.0034 L9.0022,11.0034 L9.0022,10.6974 Z M17.0022,20.0034 L15.0022,20.0034 L15.0022,13.0034 L17.0022,13.0034 L17.0022,20.0034 Z M21.0022,20.0034 L19.0022,20.0034 L19.0022,13.0034 L21.0022,13.0034 L21.0022,20.0034 Z M25.9512,23.6874 L24.9512,20.6874 C24.8142,20.2794 24.4322,20.0034 24.0022,20.0034 L23.0022,20.0034 L23.0022,13.0034 L24.0022,13.0034 C24.5542,13.0034 25.0022,12.5554 25.0022,12.0034 L25.0022,10.0034 C25.0022,9.5864 24.7432,9.2134 24.3532,9.0664 L16.3532,6.0664 C16.1262,5.9824 15.8772,5.9824 15.6512,6.0664 L7.6512,9.0664 C7.2612,9.2134 7.0022,9.5864 7.0022,10.0034 L7.0022,12.0034 C7.0022,12.5554 7.4502,13.0034 8.0022,13.0034 L9.0022,13.0034 L9.0022,20.0034 L8.0022,20.0034 C7.5712,20.0034 7.1892,20.2794 7.0532,20.6874 L6.0532,23.6874 C5.9512,23.9924 6.0032,24.3274 6.1912,24.5884 C6.3792,24.8494 6.6812,25.0034 7.0022,25.0034 L25.0022,25.0034 C25.3232,25.0034 25.6252,24.8494 25.8132,24.5884 C26.0012,24.3274 26.0522,23.9924 25.9512,23.6874 L25.9512,23.6874 Z" id="Fill-632" fill="#FFFFFF"></path>
                            <rect id="base" x="0" y="0" width="32" height="32"></rect>
                        </g>
                    </g>
                </g>
            </g>
        </g>
    </g>
</svg>