<?xml version="1.0" encoding="UTF-8"?>
<svg width="32px" height="32px" viewBox="0 0 32 32" version="1.1" xmlns="http://www.w3.org/2000/svg" xmlns:xlink="http://www.w3.org/1999/xlink">
    <!-- Generator: Sketch 61.2 (89653) - https://sketch.com -->
    <title>ic_laporan</title>
    <desc>Created with Sketch.</desc>
    <g id="Page-1" stroke="none" stroke-width="1" fill="none" fill-rule="evenodd">
        <g id="2-C---Sidebar" transform="translate(-9.000000, -609.000000)">
            <g id="side-menu-A">
                <g id="laporan" transform="translate(0.000000, 600.000000)">
                    <g id="icon-menu">
                        <g id="ic_laporan" transform="translate(9.000000, 9.000000)">
                            <g id="Group-22" transform="translate(7.000000, 4.000500)" fill="#FFFFFF">
                                <path d="M16,21 L2,21 L2,7 L4,7 L4,9 L14,9 L14,7 L16,7 L16,21 Z M6,5 L12,5 L12,7 L6,7 L6,5 Z M9,2 C9.739,2 10.385,2.402 10.731,3 L7.269,3 C7.615,2.402 8.261,2 9,2 L9,2 Z M16,5 L14,5 L14,3 L12.858,3 C12.411,1.28 10.858,-5.32907052e-15 9,-5.32907052e-15 C7.142,-5.32907052e-15 5.589,1.28 5.142,3 L4,3 L4,5 L2,5 C0.897,5 0,5.897 0,7 L0,21 C0,22.102 0.897,23 2,23 L16,23 C17.103,23 18,22.102 18,21 L18,7 C18,5.897 17.103,5 16,5 L16,5 Z" id="Fill-882"></path>
                            </g>
                            <rect id="base" x="0" y="0" width="32" height="32"></rect>
                        </g>
                    </g>
                </g>
            </g>
        </g>
    </g>
</svg>