<?xml version="1.0" encoding="UTF-8" standalone="no"?>
<svg width="16px" height="16px" viewBox="0 0 16 16" version="1.1" xmlns="http://www.w3.org/2000/svg" xmlns:xlink="http://www.w3.org/1999/xlink">
    <!-- Generator: Sketch 49.2 (51160) - http://www.bohemiancoding.com/sketch -->
    <title>ic_less_min</title>
    <desc>Created with Sketch.</desc>
    <defs></defs>
    <g id="Master-Template" stroke="none" stroke-width="1" fill="none" fill-rule="evenodd">
        <g id="1-Master-Sidebar-Top-Bar" transform="translate(-30.000000, -16.000000)">
            <g id="Lite-Menu">
                <g id="Lite-Sidebar">
                    <g id="ic_default_menu" transform="translate(30.000000, 16.000000)">
                        <path d="M0,13 L16,13 L16,11 L0,11 L0,13 Z M0,3 L0,5 L16,5 L16,3 L0,3 Z M0,9 L16,9 L16,7 L0,7 L0,9 Z" id="Shape" fill="#FFFFFF" fill-rule="nonzero"></path>
                        <polygon id="Shape" points="0 0 16 0 16 16 0 16"></polygon>
                    </g>
                </g>
            </g>
        </g>
    </g>
</svg>