<?xml version="1.0" encoding="UTF-8"?>
<svg width="32px" height="32px" viewBox="0 0 32 32" version="1.1" xmlns="http://www.w3.org/2000/svg" xmlns:xlink="http://www.w3.org/1999/xlink">
    <!-- Generator: Sketch 61.2 (89653) - https://sketch.com -->
    <title>ic_transaksi</title>
    <desc>Created with Sketch.</desc>
    <g id="Page-1" stroke="none" stroke-width="1" fill="none" fill-rule="evenodd">
        <g id="2-C---Sidebar" transform="translate(-9.000000, -359.000000)">
            <g id="side-menu-A">
                <g id="transaksi" transform="translate(0.000000, 350.000000)">
                    <g id="icon-menu">
                        <g id="ic_transaksi" transform="translate(9.000000, 9.000000)">
                            <g id="Group-20" transform="translate(4.000032, 6.000500)" fill="#FFFFFF">
                                <path d="M21.9999676,5 L19.9999676,5 L19.9999676,3 C19.9999676,2.448 20.4489676,2 20.9999676,2 C21.5509676,2 21.9999676,2.448 21.9999676,3 L21.9999676,5 Z M17.9999676,16 C17.9999676,16.552 17.5509676,17 16.9999676,17 C16.4459676,17 15.9999676,16.453 15.9999676,16 C15.9999676,14.458 14.5419676,13 12.9999676,13 L10.9999676,13 L10.9999676,3 C10.9999676,2.448 11.4489676,2 11.9999676,2 L18.1839676,2 C18.0719676,2.315 17.9999676,2.648 17.9999676,3 L17.9999676,16 Z M12.9999676,15 C13.4489676,15 13.9999676,15.552 13.9999676,16 C13.9999676,16.348 14.0769676,16.683 14.1969676,17 L10.3669676,17 C10.7379676,16 11.4859676,15 12.9999676,15 L12.9999676,15 Z M8.07096758,18 L2.32596758,18 C2.79896758,16.678 3.69996758,15 4.99996758,15 L9.16396758,15 C8.53396758,15.931 8.20296758,17.04 8.07096758,18 L8.07096758,18 Z M20.9999676,0 L11.9999676,0 C10.3459676,0 8.99996758,1.346 8.99996758,3 L8.99996758,13 L4.99996758,13 C1.22396758,13 0.0669675783,18.567 0.0199675783,18.804 C-0.0400324217,19.098 0.0369675783,19.402 0.226967578,19.634 C0.416967578,19.866 0.699967578,20 0.999967578,20 L8.99996758,20 C9.55196758,20 9.99996758,19.552 9.99996758,19 L16.9999676,19 C18.6539676,19 19.9999676,17.654 19.9999676,16 L19.9999676,7 L22.9999676,7 C23.5519676,7 23.9999676,6.552 23.9999676,6 L23.9999676,3 C23.9999676,1.346 22.6539676,0 20.9999676,0 L20.9999676,0 Z" id="Fill-537"></path>
                                <polygon id="Fill-538" points="11.9999676 5.9995 16.9999676 5.9995 16.9999676 3.9995 11.9999676 3.9995"></polygon>
                                <polygon id="Fill-539" points="11.9999676 8.9995 16.9999676 8.9995 16.9999676 6.9995 11.9999676 6.9995"></polygon>
                                <polygon id="Fill-540" points="11.9999676 11.9995 16.9999676 11.9995 16.9999676 9.9995 11.9999676 9.9995"></polygon>
                            </g>
                            <rect id="base" x="0" y="0" width="32" height="32"></rect>
                        </g>
                    </g>
                </g>
            </g>
        </g>
    </g>
</svg>