<?xml version="1.0" encoding="UTF-8"?>
<svg width="24px" height="17px" viewBox="0 0 24 17" version="1.1" xmlns="http://www.w3.org/2000/svg" xmlns:xlink="http://www.w3.org/1999/xlink">
    <!-- Generator: Sketch 59 (86127) - https://sketch.com -->
    <title>Youtube</title>
    <desc>Created with Sketch.</desc>
    <g id="MOCO-CATALOGUE" stroke="none" stroke-width="1" fill="none" fill-rule="evenodd">
        <g id="1_welcome" transform="translate(-168.000000, -923.000000)" fill="#B3B3B7">
            <g id="content">
                <g id="botttom" transform="translate(0.000000, 874.000000)">
                    <g id="social_media" transform="translate(60.000000, 45.000000)">
                        <g id="Youtube" transform="translate(108.000000, 0.000000)">
                            <path d="M9.522,15.634958 L9.52125,8.8438708 L16.00575,12.2511219 L9.522,15.634958 Z M23.76,7.66708135 C23.76,7.66708135 23.52525,6.0015995 22.806,5.26818323 C21.89325,4.30514951 20.87025,4.30061759 20.4015,4.24472386 C17.043,4 12.00525,4 12.00525,4 L11.99475,4 C11.99475,4 6.957,4 3.5985,4.24472386 C3.129,4.30061759 2.10675,4.30514951 1.19325,5.26818323 C0.474,6.0015995 0.24,7.66708135 0.24,7.66708135 C0.24,7.66708135 0,9.62336162 0,11.5788866 L0,13.4128049 C0,15.3690852 0.24,17.3246101 0.24,17.3246101 C0.24,17.3246101 0.474,18.990092 1.19325,19.7235082 C2.10675,20.686542 3.306,20.6563291 3.84,20.7567868 C5.76,20.9425956 12,21 12,21 C12,21 17.043,20.9924468 20.4015,20.7477229 C20.87025,20.6910739 21.89325,20.686542 22.806,19.7235082 C23.52525,18.990092 23.76,17.3246101 23.76,17.3246101 C23.76,17.3246101 24,15.3690852 24,13.4128049 L24,11.5788866 C24,9.62336162 23.76,7.66708135 23.76,7.66708135 L23.76,7.66708135 Z" id="inactive"></path>
                        </g>
                    </g>
                </g>
            </g>
        </g>
    </g>
</svg>