<?xml version="1.0" encoding="utf-8"?>
<!-- Generator: Adobe Illustrator 21.1.0, SVG Export Plug-In . SVG Version: 6.00 Build 0)  -->
<svg version="1.1" id="Layer_1" xmlns="http://www.w3.org/2000/svg" xmlns:xlink="http://www.w3.org/1999/xlink" x="0px" y="0px"
	 viewBox="0 0 302 184" style="enable-background:new 0 0 302 184;" xml:space="preserve">
<style type="text/css">
	.st0{fill:#FFFFFF;}
	.st1{fill:#ECECEC;}
	.st2{fill:#D3D3D3;}
	.st3{fill:#EAEAEA;}
	.st4{fill:#274146;}
	.st5{fill:#405B6B;}
	.st6{fill:#FCBE91;}
	.st7{fill:#1A2E36;}
	.st8{fill:#F15A58;}
	.st9{fill:#354A51;}
	.st10{fill:#F05557;}
	.st11{fill:#FCBF92;}
	.st12{fill:#162E36;}
	.st13{fill:#263238;}
	.st14{fill:#E1E2E1;}
	.st15{fill:#3F5967;}
	.st16{fill:#1C2F37;}
	.st17{fill:#262262;}
	.st18{fill:#3A5A65;}
	.st19{fill:#F0535C;}
	.st20{fill:#B8373D;}
	.st21{fill:#F3767C;}
	.st22{fill:#6D151F;}
</style>
<g>
	<rect x="0.1" y="0.1" class="st0" width="302" height="184"/>
	<g>
		<path class="st1" d="M234.3,155.6c0,0-5.9-3.7-8.2-12.6s-1.3-17.5,1.6-18.5c2.9-1.1,7.4,7.6,10.7,6.1c3.3-1.6,1.2-18,5.5-19.7
			c4.3-1.7,2.1,5.7,5.3,5.4c3.2-0.3,13.3-20.4,18.7-13.5c5.4,6.8-11.3,13-10.1,16.8s6.2,0.3,7.2,4.3c1.1,4.1-15.7,8.9-14.5,12.4
			c1.2,3.4,11.7-2.5,12.9,4.3C264.6,147.3,246.3,160.1,234.3,155.6z"/>
		<path class="st1" d="M54.3,155.1c0,0,3.6-2.3,5-7.7c1.4-5.5,0.8-10.7-1-11.3c-1.8-0.6-4.5,4.7-6.5,3.7s-0.7-11-3.4-12.1
			s-1.3,3.5-3.2,3.3c-1.9-0.2-8.1-12.5-11.4-8.3s6.9,8,6.2,10.3c-0.7,2.3-3.8,0.2-4.4,2.7c-0.6,2.5,9.6,5.5,8.8,7.6
			c-0.7,2.1-7.2-1.5-7.9,2.7C35.8,150,47,157.8,54.3,155.1z"/>
		<g>
			<g>
				<rect x="165.6" y="46.7" class="st1" width="34.3" height="109.2"/>
				<g>
					<rect x="168.7" y="51.6" class="st2" width="28.3" height="6.7"/>
					<rect x="192.6" y="51.6" class="st0" width="4.3" height="6.7"/>
					<rect x="168.7" y="51.6" class="st0" width="1.6" height="6.7"/>
					<rect x="174.2" y="52.9" class="st3" width="1" height="4"/>
					<rect x="176.2" y="52.9" class="st3" width="1" height="4"/>
					<rect x="178.1" y="52.9" class="st3" width="1" height="4"/>
					<rect x="180.1" y="52.9" class="st3" width="1" height="4"/>
					<rect x="182.1" y="52.9" class="st3" width="1" height="4"/>
					<rect x="184" y="52.9" class="st3" width="1" height="4"/>
					<rect x="186" y="52.9" class="st3" width="1" height="4"/>
					<rect x="188" y="52.9" class="st3" width="1" height="4"/>
					<rect x="189.9" y="52.9" class="st3" width="1" height="4"/>
					<g>
						<path class="st0" d="M171.9,55.5h-0.2c-0.3,0-0.5-0.2-0.5-0.5v-0.2c0-0.3,0.2-0.5,0.5-0.5h0.2c0.3,0,0.5,0.2,0.5,0.5V55
							C172.4,55.3,172.2,55.5,171.9,55.5z"/>
						<path class="st0" d="M171.9,53.9h-0.2c-0.3,0-0.5-0.2-0.5-0.5v-0.2c0-0.3,0.2-0.5,0.5-0.5h0.2c0.3,0,0.5,0.2,0.5,0.5v0.2
							C172.4,53.7,172.2,53.9,171.9,53.9z"/>
						<path class="st0" d="M171.9,57.1h-0.2c-0.3,0-0.5-0.2-0.5-0.5v-0.2c0-0.3,0.2-0.5,0.5-0.5h0.2c0.3,0,0.5,0.2,0.5,0.5v0.2
							C172.4,56.9,172.2,57.1,171.9,57.1z"/>
					</g>
				</g>
				<g>
					<rect x="168.7" y="63.2" class="st2" width="28.3" height="6.7"/>
					<rect x="192.6" y="63.2" class="st0" width="4.3" height="6.7"/>
					<rect x="168.7" y="63.2" class="st0" width="1.6" height="6.7"/>
					<rect x="174.2" y="64.5" class="st3" width="1" height="4"/>
					<rect x="176.2" y="64.5" class="st3" width="1" height="4"/>
					<rect x="178.1" y="64.5" class="st3" width="1" height="4"/>
					<rect x="180.1" y="64.5" class="st3" width="1" height="4"/>
					<rect x="182.1" y="64.5" class="st3" width="1" height="4"/>
					<rect x="184" y="64.5" class="st3" width="1" height="4"/>
					<rect x="186" y="64.5" class="st3" width="1" height="4"/>
					<rect x="188" y="64.5" class="st3" width="1" height="4"/>
					<rect x="189.9" y="64.5" class="st3" width="1" height="4"/>
					<g>
						<path class="st0" d="M171.9,67.1h-0.2c-0.3,0-0.5-0.2-0.5-0.5v-0.2c0-0.3,0.2-0.5,0.5-0.5h0.2c0.3,0,0.5,0.2,0.5,0.5v0.2
							C172.4,66.9,172.2,67.1,171.9,67.1z"/>
						<path class="st0" d="M171.9,65.5h-0.2c-0.3,0-0.5-0.2-0.5-0.5v-0.2c0-0.3,0.2-0.5,0.5-0.5h0.2c0.3,0,0.5,0.2,0.5,0.5V65
							C172.4,65.3,172.2,65.5,171.9,65.5z"/>
						<path class="st0" d="M171.9,68.7h-0.2c-0.3,0-0.5-0.2-0.5-0.5V68c0-0.3,0.2-0.5,0.5-0.5h0.2c0.3,0,0.5,0.2,0.5,0.5v0.2
							C172.4,68.5,172.2,68.7,171.9,68.7z"/>
					</g>
				</g>
				<g>
					<rect x="168.7" y="74.7" class="st2" width="28.3" height="6.7"/>
					<rect x="192.6" y="74.7" class="st0" width="4.3" height="6.7"/>
					<rect x="168.7" y="74.7" class="st0" width="1.6" height="6.7"/>
					<rect x="174.2" y="76.1" class="st3" width="1" height="4"/>
					<rect x="176.2" y="76.1" class="st3" width="1" height="4"/>
					<rect x="178.1" y="76.1" class="st3" width="1" height="4"/>
					<rect x="180.1" y="76.1" class="st3" width="1" height="4"/>
					<rect x="182.1" y="76.1" class="st3" width="1" height="4"/>
					<rect x="184" y="76.1" class="st3" width="1" height="4"/>
					<rect x="186" y="76.1" class="st3" width="1" height="4"/>
					<rect x="188" y="76.1" class="st3" width="1" height="4"/>
					<rect x="189.9" y="76.1" class="st3" width="1" height="4"/>
					<g>
						<path class="st0" d="M171.9,78.7h-0.2c-0.3,0-0.5-0.2-0.5-0.5V78c0-0.3,0.2-0.5,0.5-0.5h0.2c0.3,0,0.5,0.2,0.5,0.5v0.2
							C172.4,78.5,172.2,78.7,171.9,78.7z"/>
						<path class="st0" d="M171.9,77.1h-0.2c-0.3,0-0.5-0.2-0.5-0.5v-0.2c0-0.3,0.2-0.5,0.5-0.5h0.2c0.3,0,0.5,0.2,0.5,0.5v0.2
							C172.4,76.9,172.2,77.1,171.9,77.1z"/>
						<path class="st0" d="M171.9,80.3h-0.2c-0.3,0-0.5-0.2-0.5-0.5v-0.2c0-0.3,0.2-0.5,0.5-0.5h0.2c0.3,0,0.5,0.2,0.5,0.5v0.2
							C172.4,80,172.2,80.3,171.9,80.3z"/>
					</g>
				</g>
				<g>
					<rect x="168.7" y="86.3" class="st2" width="28.3" height="6.7"/>
					<rect x="192.6" y="86.3" class="st0" width="4.3" height="6.7"/>
					<rect x="168.7" y="86.3" class="st0" width="1.6" height="6.7"/>
					<rect x="174.2" y="87.7" class="st3" width="1" height="4"/>
					<rect x="176.2" y="87.7" class="st3" width="1" height="4"/>
					<rect x="178.1" y="87.7" class="st3" width="1" height="4"/>
					<rect x="180.1" y="87.7" class="st3" width="1" height="4"/>
					<rect x="182.1" y="87.7" class="st3" width="1" height="4"/>
					<rect x="184" y="87.7" class="st3" width="1" height="4"/>
					<rect x="186" y="87.7" class="st3" width="1" height="4"/>
					<rect x="188" y="87.7" class="st3" width="1" height="4"/>
					<rect x="189.9" y="87.7" class="st3" width="1" height="4"/>
					<g>
						<path class="st0" d="M171.9,90.3h-0.2c-0.3,0-0.5-0.2-0.5-0.5v-0.2c0-0.3,0.2-0.5,0.5-0.5h0.2c0.3,0,0.5,0.2,0.5,0.5v0.2
							C172.4,90,172.2,90.3,171.9,90.3z"/>
						<path class="st0" d="M171.9,88.7h-0.2c-0.3,0-0.5-0.2-0.5-0.5V88c0-0.3,0.2-0.5,0.5-0.5h0.2c0.3,0,0.5,0.2,0.5,0.5v0.2
							C172.4,88.5,172.2,88.7,171.9,88.7z"/>
						<path class="st0" d="M171.9,91.9h-0.2c-0.3,0-0.5-0.2-0.5-0.5v-0.2c0-0.3,0.2-0.5,0.5-0.5h0.2c0.3,0,0.5,0.2,0.5,0.5v0.2
							C172.4,91.6,172.2,91.9,171.9,91.9z"/>
					</g>
				</g>
				<g>
					<rect x="168.7" y="97.9" class="st2" width="28.3" height="6.7"/>
					<rect x="192.6" y="97.9" class="st0" width="4.3" height="6.7"/>
					<rect x="168.7" y="97.9" class="st0" width="1.6" height="6.7"/>
					<rect x="174.2" y="99.2" class="st3" width="1" height="4"/>
					<rect x="176.2" y="99.2" class="st3" width="1" height="4"/>
					<rect x="178.1" y="99.2" class="st3" width="1" height="4"/>
					<rect x="180.1" y="99.2" class="st3" width="1" height="4"/>
					<rect x="182.1" y="99.2" class="st3" width="1" height="4"/>
					<rect x="184" y="99.2" class="st3" width="1" height="4"/>
					<rect x="186" y="99.2" class="st3" width="1" height="4"/>
					<rect x="188" y="99.2" class="st3" width="1" height="4"/>
					<rect x="189.9" y="99.2" class="st3" width="1" height="4"/>
					<g>
						<path class="st0" d="M171.9,101.9h-0.2c-0.3,0-0.5-0.2-0.5-0.5v-0.2c0-0.3,0.2-0.5,0.5-0.5h0.2c0.3,0,0.5,0.2,0.5,0.5v0.2
							C172.4,101.6,172.2,101.9,171.9,101.9z"/>
						<path class="st0" d="M171.9,100.3h-0.2c-0.3,0-0.5-0.2-0.5-0.5v-0.2c0-0.3,0.2-0.5,0.5-0.5h0.2c0.3,0,0.5,0.2,0.5,0.5v0.2
							C172.4,100,172.2,100.3,171.9,100.3z"/>
						<path class="st0" d="M171.9,103.4h-0.2c-0.3,0-0.5-0.2-0.5-0.5v-0.2c0-0.3,0.2-0.5,0.5-0.5h0.2c0.3,0,0.5,0.2,0.5,0.5v0.2
							C172.4,103.2,172.2,103.4,171.9,103.4z"/>
					</g>
				</g>
				<g>
					<rect x="168.7" y="109.5" class="st2" width="28.3" height="6.7"/>
					<rect x="192.6" y="109.5" class="st0" width="4.3" height="6.7"/>
					<rect x="168.7" y="109.5" class="st0" width="1.6" height="6.7"/>
					<rect x="174.2" y="110.8" class="st3" width="1" height="4"/>
					<rect x="176.2" y="110.8" class="st3" width="1" height="4"/>
					<rect x="178.1" y="110.8" class="st3" width="1" height="4"/>
					<rect x="180.1" y="110.8" class="st3" width="1" height="4"/>
					<rect x="182.1" y="110.8" class="st3" width="1" height="4"/>
					<rect x="184" y="110.8" class="st3" width="1" height="4"/>
					<rect x="186" y="110.8" class="st3" width="1" height="4"/>
					<rect x="188" y="110.8" class="st3" width="1" height="4"/>
					<rect x="189.9" y="110.8" class="st3" width="1" height="4"/>
					<g>
						<path class="st0" d="M171.9,113.4h-0.2c-0.3,0-0.5-0.2-0.5-0.5v-0.2c0-0.3,0.2-0.5,0.5-0.5h0.2c0.3,0,0.5,0.2,0.5,0.5v0.2
							C172.4,113.2,172.2,113.4,171.9,113.4z"/>
						<path class="st0" d="M171.9,111.9h-0.2c-0.3,0-0.5-0.2-0.5-0.5v-0.2c0-0.3,0.2-0.5,0.5-0.5h0.2c0.3,0,0.5,0.2,0.5,0.5v0.2
							C172.4,111.6,172.2,111.9,171.9,111.9z"/>
						<path class="st0" d="M171.9,115h-0.2c-0.3,0-0.5-0.2-0.5-0.5v-0.2c0-0.3,0.2-0.5,0.5-0.5h0.2c0.3,0,0.5,0.2,0.5,0.5v0.2
							C172.4,114.8,172.2,115,171.9,115z"/>
					</g>
				</g>
				<g>
					<rect x="168.7" y="121.1" class="st2" width="28.3" height="6.7"/>
					<rect x="192.6" y="121.1" class="st0" width="4.3" height="6.7"/>
					<rect x="168.7" y="121.1" class="st0" width="1.6" height="6.7"/>
					<rect x="174.2" y="122.4" class="st3" width="1" height="4"/>
					<rect x="176.2" y="122.4" class="st3" width="1" height="4"/>
					<rect x="178.1" y="122.4" class="st3" width="1" height="4"/>
					<rect x="180.1" y="122.4" class="st3" width="1" height="4"/>
					<rect x="182.1" y="122.4" class="st3" width="1" height="4"/>
					<rect x="184" y="122.4" class="st3" width="1" height="4"/>
					<rect x="186" y="122.4" class="st3" width="1" height="4"/>
					<rect x="188" y="122.4" class="st3" width="1" height="4"/>
					<rect x="189.9" y="122.4" class="st3" width="1" height="4"/>
					<g>
						<path class="st0" d="M171.9,125h-0.2c-0.3,0-0.5-0.2-0.5-0.5v-0.2c0-0.3,0.2-0.5,0.5-0.5h0.2c0.3,0,0.5,0.2,0.5,0.5v0.2
							C172.4,124.8,172.2,125,171.9,125z"/>
						<path class="st0" d="M171.9,123.4h-0.2c-0.3,0-0.5-0.2-0.5-0.5v-0.2c0-0.3,0.2-0.5,0.5-0.5h0.2c0.3,0,0.5,0.2,0.5,0.5v0.2
							C172.4,123.2,172.2,123.4,171.9,123.4z"/>
						<path class="st0" d="M171.9,126.6h-0.2c-0.3,0-0.5-0.2-0.5-0.5v-0.2c0-0.3,0.2-0.5,0.5-0.5h0.2c0.3,0,0.5,0.2,0.5,0.5v0.2
							C172.4,126.4,172.2,126.6,171.9,126.6z"/>
					</g>
				</g>
				<g>
					<rect x="168.7" y="132.7" class="st2" width="28.3" height="6.7"/>
					<rect x="192.6" y="132.7" class="st0" width="4.3" height="6.7"/>
					<rect x="168.7" y="132.7" class="st0" width="1.6" height="6.7"/>
					<rect x="174.2" y="134" class="st3" width="1" height="4"/>
					<rect x="176.2" y="134" class="st3" width="1" height="4"/>
					<rect x="178.1" y="134" class="st3" width="1" height="4"/>
					<rect x="180.1" y="134" class="st3" width="1" height="4"/>
					<rect x="182.1" y="134" class="st3" width="1" height="4"/>
					<rect x="184" y="134" class="st3" width="1" height="4"/>
					<rect x="186" y="134" class="st3" width="1" height="4"/>
					<rect x="188" y="134" class="st3" width="1" height="4"/>
					<rect x="189.9" y="134" class="st3" width="1" height="4"/>
					<g>
						<path class="st0" d="M171.9,136.6h-0.2c-0.3,0-0.5-0.2-0.5-0.5v-0.2c0-0.3,0.2-0.5,0.5-0.5h0.2c0.3,0,0.5,0.2,0.5,0.5v0.2
							C172.4,136.4,172.2,136.6,171.9,136.6z"/>
						<path class="st0" d="M171.9,135h-0.2c-0.3,0-0.5-0.2-0.5-0.5v-0.2c0-0.3,0.2-0.5,0.5-0.5h0.2c0.3,0,0.5,0.2,0.5,0.5v0.2
							C172.4,134.8,172.2,135,171.9,135z"/>
						<path class="st0" d="M171.9,138.2h-0.2c-0.3,0-0.5-0.2-0.5-0.5v-0.2c0-0.3,0.2-0.5,0.5-0.5h0.2c0.3,0,0.5,0.2,0.5,0.5v0.2
							C172.4,138,172.2,138.2,171.9,138.2z"/>
					</g>
				</g>
				<g>
					<rect x="168.7" y="144.2" class="st2" width="28.3" height="6.7"/>
					<rect x="192.6" y="144.2" class="st0" width="4.3" height="6.7"/>
					<rect x="168.7" y="144.2" class="st0" width="1.6" height="6.7"/>
					<rect x="174.2" y="145.6" class="st3" width="1" height="4"/>
					<rect x="176.2" y="145.6" class="st3" width="1" height="4"/>
					<rect x="178.1" y="145.6" class="st3" width="1" height="4"/>
					<rect x="180.1" y="145.6" class="st3" width="1" height="4"/>
					<rect x="182.1" y="145.6" class="st3" width="1" height="4"/>
					<rect x="184" y="145.6" class="st3" width="1" height="4"/>
					<rect x="186" y="145.6" class="st3" width="1" height="4"/>
					<rect x="188" y="145.6" class="st3" width="1" height="4"/>
					<rect x="189.9" y="145.6" class="st3" width="1" height="4"/>
					<g>
						<path class="st0" d="M171.9,148.2h-0.2c-0.3,0-0.5-0.2-0.5-0.5v-0.2c0-0.3,0.2-0.5,0.5-0.5h0.2c0.3,0,0.5,0.2,0.5,0.5v0.2
							C172.4,148,172.2,148.2,171.9,148.2z"/>
						<path class="st0" d="M171.9,146.6h-0.2c-0.3,0-0.5-0.2-0.5-0.5v-0.2c0-0.3,0.2-0.5,0.5-0.5h0.2c0.3,0,0.5,0.2,0.5,0.5v0.2
							C172.4,146.4,172.2,146.6,171.9,146.6z"/>
						<path class="st0" d="M171.9,149.8h-0.2c-0.3,0-0.5-0.2-0.5-0.5v-0.2c0-0.3,0.2-0.5,0.5-0.5h0.2c0.3,0,0.5,0.2,0.5,0.5v0.2
							C172.4,149.5,172.2,149.8,171.9,149.8z"/>
					</g>
				</g>
			</g>
			<g>
				<path class="st4" d="M205.6,26.9l0.5,12.5l8.2,0.6c0.6,0,1.1-0.5,1.1-1l-1-15.7c0-0.7-0.8-1.1-1.4-0.8l-6.9,3.6
					C205.8,26.1,205.6,26.5,205.6,26.9z"/>
				<path class="st5" d="M205.1,27.1l0.5,12.5l8.2,0.6c0.6,0,1.1-0.5,1.1-1l-1-15.7c0-0.7-0.8-1.1-1.4-0.8l-6.9,3.6
					C205.3,26.3,205.1,26.7,205.1,27.1z"/>
				<path class="st6" d="M211.4,47.1c0-0.1-5.9,1.7-5.9,1.7l1.8-13.6c0,0,3.9-1.2,3.4-3.1c-0.6-1.9-3.4-3.4-5.2-1
					c-1.7,2.4-8,19.9-8,19.9s-1.4,5.1,3.9,6.7l12.3-2.8L211.4,47.1z"/>
				<path class="st6" d="M249.7,54.6l5.4,6c0,0,3.4,4.1,0.4,8.7l-10.7,10.8c0,0-1.2,0.9-0.8,1.4c0.4,0.5,4.1-0.4,4.5,0.5
					c0.5,0.9-4.8,3.6-6.8,2.8c-2-0.8-1.9-6.6-1-7.7c1-1.1,8.9-11.7,8.9-11.7L245,60L249.7,54.6z"/>
				<polygon class="st7" points="233.6,151.3 231.5,89.8 244.6,151.8 255.8,151.8 242.6,88.3 243.2,87.3 241.2,78 219.2,79.3 
					222.6,151.2 				"/>
				<path class="st8" d="M231.4,152.9v3h-12.2c0,0,0.1-0.8,1-1c0.9-0.3,3.5-0.4,3.9-0.8c0.4-0.4,0.4-1.2,0.4-1.2H231.4z"/>
				<path class="st8" d="M248.4,152.9h4.3l-0.2,1c0,0-0.1,2.4,0.4,3s2.6,3.4,2.4,4.4c-0.1,1-0.4,1.2-0.4,1.2l-8.2-7.2
					C246.8,155.2,246.6,154.1,248.4,152.9z"/>
				<rect x="222" y="151.2" class="st9" width="12.1" height="1.7"/>
				<rect x="244.1" y="151.2" class="st9" width="12.1" height="1.7"/>
				<polygon class="st10" points="211.1,46.1 227.3,41.9 234.5,42.4 237,42.4 250.5,53.7 244.4,60.7 240.6,57.1 241.2,78 
					216.9,79.3 219.6,55.3 214.3,57.3 				"/>
				<g>
					<path class="st11" d="M234.5,42.4l0.4-8c0,0,2.1-0.2,2.1-1.8c0-1.6-1.3-1.3-1.3-1.3s0.4-5.2-4.6-5.9c-5-0.6-6.3,2.2-6.3,2.2
						l-0.5,8c0,0-0.1,3.4,3,3.9l-0.1,2.5c0,0,1.1,0.9,3,0.9C232.3,42.8,234.5,42.4,234.5,42.4z"/>
					<path class="st12" d="M232.8,26.8c0,0-2.7-0.2-3.7,0.5c-0.9,0.6-5.2,1-5.4-1.7c-0.2-2.7,2-3.9,3.7-3.9c1.7,0,2.2,1.5,3.3,1.5
						c1.1,0,2.4-0.9,3.2-0.1c0.8,0.7,0.3,1.4,1.1,1.9c0.8,0.5,2.9-0.3,3,1.4s-1.2,2.2-1.3,2.9s-0.2,1.9-0.9,1.9
						c-1.1,0-1.2-2.2-1.2-2.2S232.7,28.6,232.8,26.8z"/>
					<g>
						<path class="st13" d="M226.1,29.3c-0.5,0-0.8,0.1-0.7,0.2c0.1,0.1,0.3,0.2,0.6,0.2c0.3,0,0.6,0,0.7-0.1
							C226.9,29.5,226.6,29.3,226.1,29.3z"/>
						<path class="st13" d="M231.6,29.5c-0.1-0.1-0.4-0.1-0.7-0.1c-0.3,0-0.6,0-0.7,0.1c-0.2,0.1-0.2,0.1-0.1,0.2
							c0.1,0.1,0.5,0.1,0.8,0.1c0.3,0,0.7,0,0.8-0.1C231.8,29.6,231.7,29.5,231.6,29.5z"/>
						<g>
							<g>
								<path class="st13" d="M230,34.6c0.1,0,0,0.6-0.5,0.9c-0.5,0.4-1.1,0.4-1,0.3c0-0.1,0.5-0.2,0.9-0.5
									C229.7,35,229.9,34.5,230,34.6z"/>
							</g>
						</g>
						<g>
							<g>
								<g>
									<g>
										<g>
											
												<ellipse transform="matrix(0.738 -0.6748 0.6748 0.738 38.3172 160.2325)" class="st13" cx="225.5" cy="30.8" rx="0.5" ry="0.5"/>
										</g>
									</g>
								</g>
								<g>
									<g>
										<g>
											<g>
												<path class="st13" d="M225.1,30.5c0.1,0.1,0.4-0.2,0.8-0.2c0.4,0,0.8,0.2,0.8,0.2c0,0,0-0.1-0.2-0.2
													c-0.1-0.1-0.4-0.2-0.7-0.2c-0.3,0-0.5,0.1-0.6,0.2C225.2,30.3,225.1,30.4,225.1,30.5z"/>
											</g>
										</g>
									</g>
								</g>
							</g>
							<g>
								<g>
									<g>
										<g>
											
												<ellipse transform="matrix(0.8496 -0.5274 0.5274 0.8496 18.1935 126.0643)" class="st13" cx="230.1" cy="31.1" rx="0.5" ry="0.5"/>
										</g>
									</g>
								</g>
								<g>
									<g>
										<g>
											<g>
												<path class="st13" d="M229.9,30.8c0.1,0.1,0.4-0.2,0.8-0.2c0.4,0,0.8,0.2,0.8,0.2c0,0,0-0.1-0.2-0.2
													c-0.1-0.1-0.4-0.2-0.7-0.2c-0.3,0-0.5,0.1-0.6,0.2C229.9,30.6,229.8,30.7,229.9,30.8z"/>
											</g>
										</g>
									</g>
								</g>
							</g>
							<g>
								<g>
									<g>
										<g>
											<path class="st13" d="M228.1,34.6c0,0-0.3-0.1-0.7-0.1c-0.1,0-0.2,0-0.2-0.1c0-0.1,0-0.2,0.1-0.3
												c0.1-0.3,0.2-0.6,0.3-0.9c0.5-1.3,0.8-2.4,0.8-2.4c-0.1,0-0.5,1-1,2.3c-0.1,0.3-0.2,0.6-0.3,0.9c0,0.1-0.1,0.3-0.1,0.5
												c0,0.1,0.1,0.2,0.2,0.2c0.1,0,0.1,0,0.2,0C227.8,34.6,228.1,34.6,228.1,34.6z"/>
										</g>
									</g>
								</g>
							</g>
						</g>
					</g>
				</g>
				<ellipse class="st4" cx="209.4" cy="27.4" rx="0.5" ry="0.7"/>
			</g>
			<g>
				<g>
					<path class="st0" d="M195.2,91.1h-24.9c-0.8,0-1.4-0.6-1.4-1.4V72.5c0-0.8,0.6-1.4,1.4-1.4h24.9c0.8,0,1.4,0.6,1.4,1.4v17.2
						C196.5,90.5,195.9,91.1,195.2,91.1z"/>
					<path class="st4" d="M194.9,91.4h-24.5c-1,0-1.9-0.8-1.9-1.9V72.7c0-1,0.8-1.9,1.9-1.9h24.5c1,0,1.9,0.8,1.9,1.9v16.8
						C196.8,90.5,196,91.4,194.9,91.4z M170.5,71.4c-0.7,0-1.3,0.6-1.3,1.3v16.8c0,0.7,0.6,1.3,1.3,1.3h24.5c0.7,0,1.3-0.6,1.3-1.3
						V72.7c0-0.7-0.6-1.3-1.3-1.3H170.5z"/>
				</g>
				<path class="st10" d="M177.2,77.7h1.3c0.2,0,0.4,0.1,0.6,0.3l0.5,0.6c0.1,0.2,0.3,0.3,0.6,0.3h8.2c0.4,0,0.8,0.4,0.7,0.8
					l-0.3,5.9c0,0.4-0.3,0.7-0.7,0.7h-10c-0.4,0-0.7-0.3-0.7-0.7l-0.8-7C176.4,78.1,176.8,77.7,177.2,77.7z"/>
				<path class="st4" d="M196.5,73.2h-27.7v-0.6c0-0.8,0.7-1.5,1.5-1.5h26.2V73.2z"/>
			</g>
			<g>
				<rect x="51.9" y="46.7" class="st14" width="34.3" height="109.2"/>
				<g>
					<rect x="52.9" y="51.9" class="st2" width="30.9" height="4.5"/>
					<rect x="79.2" y="51.9" class="st3" width="4.7" height="4.5"/>
					<rect x="52.9" y="51.9" class="st3" width="1.8" height="4.5"/>
					<rect x="59" y="52.8" class="st3" width="5.7" height="2.7"/>
					<rect x="65.4" y="52.8" class="st3" width="12.7" height="0.6"/>
					<rect x="65.4" y="53.9" class="st3" width="12.7" height="0.6"/>
					<rect x="65.4" y="54.9" class="st3" width="12.7" height="0.6"/>
					<g>
						<path class="st0" d="M56.5,54.5h-0.2c-0.3,0-0.6-0.3-0.6-0.6v-0.2c0-0.3,0.3-0.6,0.6-0.6h0.2c0.3,0,0.6,0.3,0.6,0.6l0,0.2
							C57.1,54.3,56.8,54.5,56.5,54.5z"/>
					</g>
				</g>
				<g>
					<rect x="52.9" y="59.6" class="st2" width="30.9" height="4.5"/>
					<rect x="79.2" y="59.6" class="st3" width="4.7" height="4.5"/>
					<rect x="52.9" y="59.6" class="st3" width="1.8" height="4.5"/>
					<rect x="59" y="60.5" class="st3" width="5.7" height="2.7"/>
					<rect x="65.4" y="60.5" class="st3" width="12.7" height="0.6"/>
					<rect x="65.4" y="61.5" class="st3" width="12.7" height="0.6"/>
					<rect x="65.4" y="62.5" class="st3" width="12.7" height="0.6"/>
					<g>
						<path class="st0" d="M56.5,62.2h-0.2c-0.3,0-0.6-0.3-0.6-0.6v-0.2c0-0.3,0.3-0.6,0.6-0.6h0.2c0.3,0,0.6,0.3,0.6,0.6l0,0.2
							C57.1,61.9,56.8,62.2,56.5,62.2z"/>
					</g>
				</g>
				<g>
					<rect x="52.9" y="67.2" class="st2" width="30.9" height="4.5"/>
					<rect x="79.2" y="67.2" class="st3" width="4.7" height="4.5"/>
					<rect x="52.9" y="67.2" class="st3" width="1.8" height="4.5"/>
					<rect x="59" y="68.1" class="st3" width="5.7" height="2.7"/>
					<rect x="65.4" y="68.1" class="st3" width="12.7" height="0.6"/>
					<rect x="65.4" y="69.1" class="st3" width="12.7" height="0.6"/>
					<rect x="65.4" y="70.1" class="st3" width="12.7" height="0.6"/>
					<g>
						<path class="st0" d="M56.5,69.8h-0.2c-0.3,0-0.6-0.3-0.6-0.6V69c0-0.3,0.3-0.6,0.6-0.6h0.2c0.3,0,0.6,0.3,0.6,0.6l0,0.2
							C57.1,69.5,56.8,69.8,56.5,69.8z"/>
					</g>
				</g>
				<g>
					<rect x="52.9" y="74.8" class="st2" width="30.9" height="4.5"/>
					<rect x="79.2" y="74.8" class="st3" width="4.7" height="4.5"/>
					<rect x="52.9" y="74.8" class="st3" width="1.8" height="4.5"/>
					<rect x="59" y="75.7" class="st3" width="5.7" height="2.7"/>
					<rect x="65.4" y="75.7" class="st3" width="12.7" height="0.6"/>
					<rect x="65.4" y="76.7" class="st3" width="12.7" height="0.6"/>
					<rect x="65.4" y="77.7" class="st3" width="12.7" height="0.6"/>
					<g>
						<path class="st0" d="M56.5,77.4h-0.2c-0.3,0-0.6-0.3-0.6-0.6v-0.2c0-0.3,0.3-0.6,0.6-0.6h0.2c0.3,0,0.6,0.3,0.6,0.6l0,0.2
							C57.1,77.1,56.8,77.4,56.5,77.4z"/>
					</g>
				</g>
				<g>
					<rect x="52.9" y="82.4" class="st2" width="30.9" height="4.5"/>
					<rect x="79.2" y="82.4" class="st3" width="4.7" height="4.5"/>
					<rect x="52.9" y="82.4" class="st3" width="1.8" height="4.5"/>
					<rect x="59" y="83.3" class="st3" width="5.7" height="2.7"/>
					<rect x="65.4" y="83.3" class="st3" width="12.7" height="0.6"/>
					<rect x="65.4" y="84.3" class="st3" width="12.7" height="0.6"/>
					<rect x="65.4" y="85.4" class="st3" width="12.7" height="0.6"/>
					<g>
						<path class="st0" d="M56.5,85h-0.2c-0.3,0-0.6-0.3-0.6-0.6v-0.2c0-0.3,0.3-0.6,0.6-0.6h0.2c0.3,0,0.6,0.3,0.6,0.6l0,0.2
							C57.1,84.7,56.8,85,56.5,85z"/>
					</g>
				</g>
				<g>
					<rect x="52.9" y="90" class="st2" width="30.9" height="4.5"/>
					<rect x="79.2" y="90" class="st3" width="4.7" height="4.5"/>
					<rect x="52.9" y="90" class="st3" width="1.8" height="4.5"/>
					<rect x="59" y="90.9" class="st3" width="5.7" height="2.7"/>
					<rect x="65.4" y="90.9" class="st3" width="12.7" height="0.6"/>
					<rect x="65.4" y="91.9" class="st3" width="12.7" height="0.6"/>
					<rect x="65.4" y="93" class="st3" width="12.7" height="0.6"/>
					<g>
						<path class="st0" d="M56.5,92.6h-0.2c-0.3,0-0.6-0.3-0.6-0.6v-0.2c0-0.3,0.3-0.6,0.6-0.6h0.2c0.3,0,0.6,0.3,0.6,0.6l0,0.2
							C57.1,92.3,56.8,92.6,56.5,92.6z"/>
					</g>
				</g>
				<g>
					<rect x="52.9" y="97.6" class="st2" width="30.9" height="4.5"/>
					<rect x="79.2" y="97.6" class="st3" width="4.7" height="4.5"/>
					<rect x="52.9" y="97.6" class="st3" width="1.8" height="4.5"/>
					<rect x="59" y="98.5" class="st3" width="5.7" height="2.7"/>
					<rect x="65.4" y="98.5" class="st3" width="12.7" height="0.6"/>
					<rect x="65.4" y="99.5" class="st3" width="12.7" height="0.6"/>
					<rect x="65.4" y="100.6" class="st3" width="12.7" height="0.6"/>
					<g>
						<path class="st0" d="M56.5,100.2h-0.2c-0.3,0-0.6-0.3-0.6-0.6v-0.2c0-0.3,0.3-0.6,0.6-0.6h0.2c0.3,0,0.6,0.3,0.6,0.6l0,0.2
							C57.1,100,56.8,100.2,56.5,100.2z"/>
					</g>
				</g>
				<g>
					<rect x="52.9" y="105.2" class="st2" width="30.9" height="4.5"/>
					<rect x="79.2" y="105.2" class="st3" width="4.7" height="4.5"/>
					<rect x="52.9" y="105.2" class="st3" width="1.8" height="4.5"/>
					<rect x="59" y="106.1" class="st3" width="5.7" height="2.7"/>
					<rect x="65.4" y="106.1" class="st3" width="12.7" height="0.6"/>
					<rect x="65.4" y="107.2" class="st3" width="12.7" height="0.6"/>
					<rect x="65.4" y="108.2" class="st3" width="12.7" height="0.6"/>
					<g>
						<path class="st0" d="M56.5,107.8h-0.2c-0.3,0-0.6-0.3-0.6-0.6v-0.2c0-0.3,0.3-0.6,0.6-0.6h0.2c0.3,0,0.6,0.3,0.6,0.6l0,0.2
							C57.1,107.6,56.8,107.8,56.5,107.8z"/>
					</g>
				</g>
				<g>
					<rect x="52.9" y="112.8" class="st2" width="30.9" height="4.5"/>
					<rect x="79.2" y="112.8" class="st3" width="4.7" height="4.5"/>
					<rect x="52.9" y="112.8" class="st3" width="1.8" height="4.5"/>
					<rect x="59" y="113.7" class="st3" width="5.7" height="2.7"/>
					<rect x="65.4" y="113.7" class="st3" width="12.7" height="0.6"/>
					<rect x="65.4" y="114.8" class="st3" width="12.7" height="0.6"/>
					<rect x="65.4" y="115.8" class="st3" width="12.7" height="0.6"/>
					<g>
						<path class="st0" d="M56.5,115.4h-0.2c-0.3,0-0.6-0.3-0.6-0.6v-0.2c0-0.3,0.3-0.6,0.6-0.6h0.2c0.3,0,0.6,0.3,0.6,0.6l0,0.2
							C57.1,115.2,56.8,115.4,56.5,115.4z"/>
					</g>
				</g>
				<g>
					<rect x="52.9" y="120.5" class="st2" width="30.9" height="4.5"/>
					<rect x="79.2" y="120.5" class="st3" width="4.7" height="4.5"/>
					<rect x="52.9" y="120.5" class="st3" width="1.8" height="4.5"/>
					<rect x="59" y="121.3" class="st3" width="5.7" height="2.7"/>
					<rect x="65.4" y="121.3" class="st3" width="12.7" height="0.6"/>
					<rect x="65.4" y="122.4" class="st3" width="12.7" height="0.6"/>
					<rect x="65.4" y="123.4" class="st3" width="12.7" height="0.6"/>
					<g>
						<path class="st0" d="M56.5,123h-0.2c-0.3,0-0.6-0.3-0.6-0.6v-0.2c0-0.3,0.3-0.6,0.6-0.6h0.2c0.3,0,0.6,0.3,0.6,0.6l0,0.2
							C57.1,122.8,56.8,123,56.5,123z"/>
					</g>
				</g>
				<g>
					<rect x="52.9" y="128.1" class="st2" width="30.9" height="4.5"/>
					<rect x="79.2" y="128.1" class="st3" width="4.7" height="4.5"/>
					<rect x="52.9" y="128.1" class="st3" width="1.8" height="4.5"/>
					<rect x="59" y="129" class="st3" width="5.7" height="2.7"/>
					<rect x="65.4" y="129" class="st3" width="12.7" height="0.6"/>
					<rect x="65.4" y="130" class="st3" width="12.7" height="0.6"/>
					<rect x="65.4" y="131" class="st3" width="12.7" height="0.6"/>
					<g>
						<path class="st0" d="M56.5,130.7h-0.2c-0.3,0-0.6-0.3-0.6-0.6v-0.2c0-0.3,0.3-0.6,0.6-0.6h0.2c0.3,0,0.6,0.3,0.6,0.6l0,0.2
							C57.1,130.4,56.8,130.7,56.5,130.7z"/>
					</g>
				</g>
				<g>
					<rect x="52.9" y="135.7" class="st2" width="30.9" height="4.5"/>
					<rect x="79.2" y="135.7" class="st3" width="4.7" height="4.5"/>
					<rect x="52.9" y="135.7" class="st3" width="1.8" height="4.5"/>
					<rect x="59" y="136.6" class="st3" width="5.7" height="2.7"/>
					<rect x="65.4" y="136.6" class="st3" width="12.7" height="0.6"/>
					<rect x="65.4" y="137.6" class="st3" width="12.7" height="0.6"/>
					<rect x="65.4" y="138.6" class="st3" width="12.7" height="0.6"/>
					<g>
						<path class="st0" d="M56.5,138.3h-0.2c-0.3,0-0.6-0.3-0.6-0.6v-0.2c0-0.3,0.3-0.6,0.6-0.6h0.2c0.3,0,0.6,0.3,0.6,0.6l0,0.2
							C57.1,138,56.8,138.3,56.5,138.3z"/>
					</g>
				</g>
				<g>
					<rect x="52.9" y="143.3" class="st2" width="30.9" height="4.5"/>
					<rect x="79.2" y="143.3" class="st3" width="4.7" height="4.5"/>
					<rect x="52.9" y="143.3" class="st3" width="1.8" height="4.5"/>
					<rect x="59" y="144.2" class="st3" width="5.7" height="2.7"/>
					<rect x="65.4" y="144.2" class="st3" width="12.7" height="0.6"/>
					<rect x="65.4" y="145.2" class="st3" width="12.7" height="0.6"/>
					<rect x="65.4" y="146.3" class="st3" width="12.7" height="0.6"/>
					<g>
						<path class="st0" d="M56.5,145.9h-0.2c-0.3,0-0.6-0.3-0.6-0.6v-0.2c0-0.3,0.3-0.6,0.6-0.6h0.2c0.3,0,0.6,0.3,0.6,0.6l0,0.2
							C57.1,145.6,56.8,145.9,56.5,145.9z"/>
					</g>
				</g>
			</g>
			<g>
				<rect x="132.9" y="31.6" class="st14" width="32.7" height="124.3"/>
				<rect x="92.3" y="31.6" class="st1" width="40.6" height="124.3"/>
				<g>
					<rect x="94.3" y="50.9" class="st15" width="34.2" height="8.1"/>
					<rect x="123.2" y="50.9" class="st16" width="5.2" height="8.1"/>
					<rect x="94.3" y="50.9" class="st16" width="2" height="8.1"/>
					<rect x="101" y="52.5" class="st16" width="1.2" height="4.8"/>
					<rect x="103.4" y="52.5" class="st16" width="1.2" height="4.8"/>
					<rect x="105.7" y="52.5" class="st16" width="1.2" height="4.8"/>
					<rect x="108.1" y="52.5" class="st16" width="1.2" height="4.8"/>
					<rect x="110.5" y="52.5" class="st16" width="1.2" height="4.8"/>
					<rect x="112.9" y="52.5" class="st16" width="1.2" height="4.8"/>
					<rect x="115.2" y="52.5" class="st16" width="1.2" height="4.8"/>
					<rect x="117.6" y="52.5" class="st16" width="1.2" height="4.8"/>
					<rect x="120" y="52.5" class="st16" width="1.2" height="4.8"/>
					<g>
						<path class="st0" d="M98.2,55.7H98c-0.4,0-0.6-0.3-0.6-0.6v-0.2c0-0.4,0.3-0.6,0.6-0.6h0.2c0.4,0,0.6,0.3,0.6,0.6V55
							C98.9,55.4,98.6,55.7,98.2,55.7z"/>
						<path class="st0" d="M98.2,53.7H98c-0.4,0-0.6-0.3-0.6-0.6v-0.2c0-0.4,0.3-0.6,0.6-0.6h0.2c0.4,0,0.6,0.3,0.6,0.6v0.2
							C98.9,53.4,98.6,53.7,98.2,53.7z"/>
						<path class="st0" d="M98.2,57.6H98c-0.4,0-0.6-0.3-0.6-0.6v-0.2c0-0.4,0.3-0.6,0.6-0.6h0.2c0.4,0,0.6,0.3,0.6,0.6v0.2
							C98.9,57.3,98.6,57.6,98.2,57.6z"/>
					</g>
				</g>
				<g>
					<rect x="94.3" y="38.6" class="st15" width="34.2" height="4.9"/>
					<rect x="123.2" y="38.6" class="st16" width="5.2" height="4.9"/>
					<rect x="94.3" y="38.6" class="st16" width="2" height="4.9"/>
					<rect x="101" y="39.6" class="st16" width="6.3" height="3"/>
					<rect x="108.1" y="39.6" class="st16" width="14.1" height="0.7"/>
					<rect x="108.1" y="40.7" class="st16" width="14.1" height="0.7"/>
					<rect x="108.1" y="41.9" class="st16" width="14.1" height="0.7"/>
					<g>
						<path class="st0" d="M98.2,41.4H98c-0.4,0-0.6-0.3-0.6-0.6v-0.2c0-0.4,0.3-0.6,0.6-0.6h0.2c0.4,0,0.6,0.3,0.6,0.6v0.2
							C98.9,41.2,98.6,41.4,98.2,41.4z"/>
					</g>
				</g>
				<g>
					<rect x="94.3" y="65.1" class="st15" width="34.2" height="8.1"/>
					<rect x="123.2" y="65.1" class="st16" width="5.2" height="8.1"/>
					<rect x="94.3" y="65.1" class="st16" width="2" height="8.1"/>
					<rect x="101" y="66.7" class="st16" width="1.2" height="4.8"/>
					<rect x="103.4" y="66.7" class="st16" width="1.2" height="4.8"/>
					<rect x="105.7" y="66.7" class="st16" width="1.2" height="4.8"/>
					<rect x="108.1" y="66.7" class="st16" width="1.2" height="4.8"/>
					<rect x="110.5" y="66.7" class="st16" width="1.2" height="4.8"/>
					<rect x="112.9" y="66.7" class="st16" width="1.2" height="4.8"/>
					<rect x="115.2" y="66.7" class="st16" width="1.2" height="4.8"/>
					<rect x="117.6" y="66.7" class="st16" width="1.2" height="4.8"/>
					<rect x="120" y="66.7" class="st16" width="1.2" height="4.8"/>
					<g>
						<path class="st0" d="M98.2,69.9H98c-0.4,0-0.6-0.3-0.6-0.6v-0.2c0-0.4,0.3-0.6,0.6-0.6h0.2c0.4,0,0.6,0.3,0.6,0.6v0.2
							C98.9,69.6,98.6,69.9,98.2,69.9z"/>
						<path class="st0" d="M98.2,68H98c-0.4,0-0.6-0.3-0.6-0.6v-0.2c0-0.4,0.3-0.6,0.6-0.6h0.2c0.4,0,0.6,0.3,0.6,0.6v0.2
							C98.9,67.7,98.6,68,98.2,68z"/>
						<path class="st0" d="M98.2,71.8H98c-0.4,0-0.6-0.3-0.6-0.6V71c0-0.4,0.3-0.6,0.6-0.6h0.2c0.4,0,0.6,0.3,0.6,0.6v0.2
							C98.9,71.5,98.6,71.8,98.2,71.8z"/>
					</g>
				</g>
				<g>
					<rect x="94.3" y="79.3" class="st15" width="34.2" height="8.1"/>
					<rect x="123.2" y="79.3" class="st16" width="5.2" height="8.1"/>
					<rect x="94.3" y="79.3" class="st16" width="2" height="8.1"/>
					<rect x="101" y="81" class="st16" width="1.2" height="4.8"/>
					<rect x="103.4" y="81" class="st16" width="1.2" height="4.8"/>
					<rect x="105.7" y="81" class="st16" width="1.2" height="4.8"/>
					<rect x="108.1" y="81" class="st16" width="1.2" height="4.8"/>
					<rect x="110.5" y="81" class="st16" width="1.2" height="4.8"/>
					<rect x="112.9" y="81" class="st16" width="1.2" height="4.8"/>
					<rect x="115.2" y="81" class="st16" width="1.2" height="4.8"/>
					<rect x="117.6" y="81" class="st16" width="1.2" height="4.8"/>
					<rect x="120" y="81" class="st16" width="1.2" height="4.8"/>
					<g>
						<path class="st0" d="M98.2,84.1H98c-0.4,0-0.6-0.3-0.6-0.6v-0.2c0-0.4,0.3-0.6,0.6-0.6h0.2c0.4,0,0.6,0.3,0.6,0.6v0.2
							C98.9,83.8,98.6,84.1,98.2,84.1z"/>
						<path class="st0" d="M98.2,82.2H98c-0.4,0-0.6-0.3-0.6-0.6v-0.2c0-0.4,0.3-0.6,0.6-0.6h0.2c0.4,0,0.6,0.3,0.6,0.6v0.2
							C98.9,81.9,98.6,82.2,98.2,82.2z"/>
						<path class="st0" d="M98.2,86H98c-0.4,0-0.6-0.3-0.6-0.6v-0.2c0-0.4,0.3-0.6,0.6-0.6h0.2c0.4,0,0.6,0.3,0.6,0.6v0.2
							C98.9,85.7,98.6,86,98.2,86z"/>
					</g>
				</g>
				<g>
					<rect x="94.3" y="93.6" class="st15" width="34.2" height="8.1"/>
					<rect x="123.2" y="93.6" class="st16" width="5.2" height="8.1"/>
					<rect x="94.3" y="93.6" class="st16" width="2" height="8.1"/>
					<rect x="101" y="95.2" class="st16" width="1.2" height="4.8"/>
					<rect x="103.4" y="95.2" class="st16" width="1.2" height="4.8"/>
					<rect x="105.7" y="95.2" class="st16" width="1.2" height="4.8"/>
					<rect x="108.1" y="95.2" class="st16" width="1.2" height="4.8"/>
					<rect x="110.5" y="95.2" class="st16" width="1.2" height="4.8"/>
					<rect x="112.9" y="95.2" class="st16" width="1.2" height="4.8"/>
					<rect x="115.2" y="95.2" class="st16" width="1.2" height="4.8"/>
					<rect x="117.6" y="95.2" class="st16" width="1.2" height="4.8"/>
					<rect x="120" y="95.2" class="st16" width="1.2" height="4.8"/>
					<g>
						<path class="st0" d="M98.2,98.4H98c-0.4,0-0.6-0.3-0.6-0.6v-0.2c0-0.4,0.3-0.6,0.6-0.6h0.2c0.4,0,0.6,0.3,0.6,0.6v0.2
							C98.9,98.1,98.6,98.4,98.2,98.4z"/>
						<path class="st0" d="M98.2,96.4H98c-0.4,0-0.6-0.3-0.6-0.6v-0.2c0-0.4,0.3-0.6,0.6-0.6h0.2c0.4,0,0.6,0.3,0.6,0.6v0.2
							C98.9,96.2,98.6,96.4,98.2,96.4z"/>
						<path class="st0" d="M98.2,100.3H98c-0.4,0-0.6-0.3-0.6-0.6v-0.2c0-0.4,0.3-0.6,0.6-0.6h0.2c0.4,0,0.6,0.3,0.6,0.6v0.2
							C98.9,100,98.6,100.3,98.2,100.3z"/>
					</g>
				</g>
				<g>
					<rect x="94.3" y="107.8" class="st15" width="34.2" height="8.1"/>
					<rect x="123.2" y="107.8" class="st16" width="5.2" height="8.1"/>
					<rect x="94.3" y="107.8" class="st16" width="2" height="8.1"/>
					<rect x="101" y="109.4" class="st16" width="1.2" height="4.8"/>
					<rect x="103.4" y="109.4" class="st16" width="1.2" height="4.8"/>
					<rect x="105.7" y="109.4" class="st16" width="1.2" height="4.8"/>
					<rect x="108.1" y="109.4" class="st16" width="1.2" height="4.8"/>
					<rect x="110.5" y="109.4" class="st16" width="1.2" height="4.8"/>
					<rect x="112.9" y="109.4" class="st16" width="1.2" height="4.8"/>
					<rect x="115.2" y="109.4" class="st16" width="1.2" height="4.8"/>
					<rect x="117.6" y="109.4" class="st16" width="1.2" height="4.8"/>
					<rect x="120" y="109.4" class="st16" width="1.2" height="4.8"/>
					<g>
						<path class="st0" d="M98.2,112.6H98c-0.4,0-0.6-0.3-0.6-0.6v-0.2c0-0.4,0.3-0.6,0.6-0.6h0.2c0.4,0,0.6,0.3,0.6,0.6v0.2
							C98.9,112.3,98.6,112.6,98.2,112.6z"/>
						<path class="st0" d="M98.2,110.7H98c-0.4,0-0.6-0.3-0.6-0.6v-0.2c0-0.4,0.3-0.6,0.6-0.6h0.2c0.4,0,0.6,0.3,0.6,0.6v0.2
							C98.9,110.4,98.6,110.7,98.2,110.7z"/>
						<path class="st0" d="M98.2,114.5H98c-0.4,0-0.6-0.3-0.6-0.6v-0.2c0-0.4,0.3-0.6,0.6-0.6h0.2c0.4,0,0.6,0.3,0.6,0.6v0.2
							C98.9,114.2,98.6,114.5,98.2,114.5z"/>
					</g>
				</g>
				<g>
					<rect x="94.3" y="122" class="st15" width="34.2" height="8.1"/>
					<rect x="123.2" y="122" class="st16" width="5.2" height="8.1"/>
					<rect x="94.3" y="122" class="st16" width="2" height="8.1"/>
					<rect x="101" y="123.7" class="st16" width="1.2" height="4.8"/>
					<rect x="103.4" y="123.7" class="st16" width="1.2" height="4.8"/>
					<rect x="105.7" y="123.7" class="st16" width="1.2" height="4.8"/>
					<rect x="108.1" y="123.7" class="st16" width="1.2" height="4.8"/>
					<rect x="110.5" y="123.7" class="st16" width="1.2" height="4.8"/>
					<rect x="112.9" y="123.7" class="st16" width="1.2" height="4.8"/>
					<rect x="115.2" y="123.7" class="st16" width="1.2" height="4.8"/>
					<rect x="117.6" y="123.7" class="st16" width="1.2" height="4.8"/>
					<rect x="120" y="123.7" class="st16" width="1.2" height="4.8"/>
					<g>
						<path class="st0" d="M98.2,126.8H98c-0.4,0-0.6-0.3-0.6-0.6V126c0-0.4,0.3-0.6,0.6-0.6h0.2c0.4,0,0.6,0.3,0.6,0.6v0.2
							C98.9,126.5,98.6,126.8,98.2,126.8z"/>
						<path class="st0" d="M98.2,124.9H98c-0.4,0-0.6-0.3-0.6-0.6v-0.2c0-0.4,0.3-0.6,0.6-0.6h0.2c0.4,0,0.6,0.3,0.6,0.6v0.2
							C98.9,124.6,98.6,124.9,98.2,124.9z"/>
						<path class="st0" d="M98.2,128.7H98c-0.4,0-0.6-0.3-0.6-0.6v-0.2c0-0.4,0.3-0.6,0.6-0.6h0.2c0.4,0,0.6,0.3,0.6,0.6v0.2
							C98.9,128.5,98.6,128.7,98.2,128.7z"/>
					</g>
				</g>
				<g>
					<rect x="94.3" y="136.3" class="st15" width="34.2" height="8.1"/>
					<rect x="123.2" y="136.3" class="st16" width="5.2" height="8.1"/>
					<rect x="94.3" y="136.3" class="st16" width="2" height="8.1"/>
					<rect x="101" y="137.9" class="st16" width="1.2" height="4.8"/>
					<rect x="103.4" y="137.9" class="st16" width="1.2" height="4.8"/>
					<rect x="105.7" y="137.9" class="st16" width="1.2" height="4.8"/>
					<rect x="108.1" y="137.9" class="st16" width="1.2" height="4.8"/>
					<rect x="110.5" y="137.9" class="st16" width="1.2" height="4.8"/>
					<rect x="112.9" y="137.9" class="st16" width="1.2" height="4.8"/>
					<rect x="115.2" y="137.9" class="st16" width="1.2" height="4.8"/>
					<rect x="117.6" y="137.9" class="st16" width="1.2" height="4.8"/>
					<rect x="120" y="137.9" class="st16" width="1.2" height="4.8"/>
					<g>
						<path class="st0" d="M98.2,141.1H98c-0.4,0-0.6-0.3-0.6-0.6v-0.2c0-0.4,0.3-0.6,0.6-0.6h0.2c0.4,0,0.6,0.3,0.6,0.6v0.2
							C98.9,140.8,98.6,141.1,98.2,141.1z"/>
						<path class="st0" d="M98.2,139.1H98c-0.4,0-0.6-0.3-0.6-0.6v-0.2c0-0.4,0.3-0.6,0.6-0.6h0.2c0.4,0,0.6,0.3,0.6,0.6v0.2
							C98.9,138.9,98.6,139.1,98.2,139.1z"/>
						<path class="st0" d="M98.2,143H98c-0.4,0-0.6-0.3-0.6-0.6v-0.2c0-0.4,0.3-0.6,0.6-0.6h0.2c0.4,0,0.6,0.3,0.6,0.6v0.2
							C98.9,142.7,98.6,143,98.2,143z"/>
					</g>
				</g>
			</g>
			<g>
				<path class="st17" d="M208.8,78.2h-12.5v-0.3h12.5c1.2,0,2.2-1,2.2-2.2V39.6h0.3v36.2C211.2,77.1,210.1,78.2,208.8,78.2z"/>
			</g>
			<g>
				<path class="st17" d="M169.2,83.5h-17c-1,0-1.8-0.8-1.8-1.8V70.1c0-0.8-0.7-1.5-1.5-1.5c-1,0-1.8-0.8-1.8-1.8v-2.6h0.3v2.6
					c0,0.8,0.7,1.5,1.5,1.5c1,0,1.8,0.8,1.8,1.8v11.6c0,0.8,0.7,1.5,1.5,1.5h17V83.5z"/>
			</g>
			<g>
				<path class="st17" d="M169.2,80.8H156c-1,0-1.8-0.8-1.8-1.8V67.4c0-0.8-0.7-1.5-1.5-1.5c-1,0-1.8-0.8-1.8-1.8v-2.6h0.3v2.6
					c0,0.8,0.7,1.5,1.5,1.5c1,0,1.8,0.8,1.8,1.8V79c0,0.8,0.7,1.5,1.5,1.5h13.1V80.8z"/>
			</g>
			<circle class="st17" cx="147.3" cy="64.3" r="1.2"/>
			<circle class="st17" cx="151.2" cy="61.5" r="1.2"/>
		</g>
		<polygon class="st18" points="33.9,156 63.3,155.7 92.7,155.6 151.4,155.5 210.2,155.6 239.6,155.7 268.9,156 239.6,156.2 
			210.2,156.4 151.4,156.5 92.7,156.4 63.3,156.2 		"/>
		<g>
			<path class="st19" d="M207.5,139.4c0,0,3.5-3-1-7.3c-4.5-4.3-7.4-2.4-7.4-2.4s-1.9,4.5,3.7,8.6
				C206.4,141.1,207.5,139.4,207.5,139.4z"/>
			<path class="st20" d="M211.5,138.3c0,0,3.2,0.3,4.1-6.1c0.9-6.4-2-7.1-2-7.1s-3-0.5-3.6,6.6C209.2,138.8,211.5,138.3,211.5,138.3
				z"/>
			<path class="st21" d="M212.1,148.1c0,0-1.4-3,2.9-4.5s5.6,1.1,5.6,1.5s0.3,1.3-1,1.7s-2.9-0.1-3.4,0.3S213.1,149.7,212.1,148.1z"
				/>
			<path class="st22" d="M203.5,134.1c0.8,0.6,1.6,1.3,2.3,2c0.7,0.7,1.4,1.5,2,2.3c0.6,0.8,1.1,1.7,1.5,2.6
				c0.4,0.9,0.8,1.9,0.9,2.9c0,0.3,0.1,0.5,0.1,0.8l0.1,0.8c0.1,0.5,0,1,0.1,1.5l0.1,3l0.1,6h-0.8l0.1-6l0.1-3c0-0.5,0-1,0-1.5
				l0-0.7c0-0.2-0.1-0.5-0.1-0.7c-0.1-1-0.4-1.9-0.8-2.9c-0.4-0.9-0.8-1.8-1.4-2.6c-0.6-0.8-1.2-1.6-1.9-2.4
				C205,135.4,204.3,134.7,203.5,134.1z"/>
			<path class="st22" d="M216.3,145c-1.1,0.4-2,1-2.8,1.8c-0.8,0.8-1.5,1.7-2,2.7c-0.1,0.2-0.2,0.5-0.3,0.8
				c-0.1,0.3-0.2,0.5-0.3,0.8c-0.1,0.3-0.1,0.5-0.2,0.8l-0.1,0.8c-0.1,0.3,0,0.5,0,0.8c0,0.3,0,0.5,0,0.8l0.1,1.7h-0.8l0.1-1.7
				c0-0.3,0-0.6,0.1-0.9c0-0.3,0-0.6,0.1-0.9l0.2-0.9c0.1-0.3,0.2-0.6,0.3-0.8c0.1-0.3,0.2-0.5,0.3-0.8c0.1-0.3,0.2-0.5,0.4-0.8
				c0.6-1,1.3-1.9,2.2-2.6C214.2,145.9,215.2,145.4,216.3,145z"/>
			<path class="st22" d="M213.2,130.3c-0.6,2.1-1,4.2-1.4,6.3c-0.3,2.1-0.6,4.3-0.8,6.4c-0.2,2.1-0.3,4.3-0.4,6.5
				c-0.1,1.1,0,2.2-0.1,3.2l0,3.2h-0.8l0.1-3.2c0.1-1.1,0.1-2.2,0.2-3.2c0.1-2.2,0.3-4.3,0.6-6.5c0.3-2.1,0.6-4.3,1-6.4
				C212.1,134.5,212.6,132.4,213.2,130.3z"/>
		</g>
	</g>
</g>
</svg>
