<?xml version="1.0" encoding="UTF-8"?>
<svg width="80px" height="80px" viewBox="0 0 80 80" version="1.1" xmlns="http://www.w3.org/2000/svg" xmlns:xlink="http://www.w3.org/1999/xlink">
    <!-- Generator: Sketch 60 (88103) - https://sketch.com -->
    <title>ic_konten_jurnal_elektronik</title>
    <desc>Created with Sketch.</desc>
    <defs>
        <polygon id="path-1" points="0.109399038 0.131971154 39.7944712 0.131971154 39.7944712 49.7596154 0.109399038 49.7596154"></polygon>
    </defs>
    <g id="icon" stroke="none" stroke-width="1" fill="none" fill-rule="evenodd">
        <g id="ic_konten_jurnal_elektronik">
            <g id="Group-28" transform="translate(19.000000, 15.000000)">
                <g id="Group-3" transform="translate(2.644231, 0.108413)">
                    <mask id="mask-2" fill="white">
                        <use xlink:href="#path-1"></use>
                    </mask>
                    <g id="Clip-2"></g>
                    <path d="M36.7865625,49.7596154 L3.11757212,49.7596154 C1.45603365,49.7596154 0.109399038,48.4129808 0.109399038,46.7516827 L0.109399038,3.13990385 C0.109399038,1.47860577 1.45603365,0.131971154 3.11757212,0.131971154 L36.7865625,0.131971154 C38.4478606,0.131971154 39.7944952,1.47860577 39.7944952,3.13990385 L39.7944952,46.7516827 C39.7944952,48.4129808 38.4478606,49.7596154 36.7865625,49.7596154" id="Fill-1" fill="#DD323E" mask="url(#mask-2)"></path>
                </g>
                <path d="M39.6850481,46.8600481 L39.6850481,3.24850962 C39.6850481,1.58721154 38.3381731,0.240576923 36.676875,0.240576923 L5.76173077,0.240576923 C4.10043269,0.240576923 2.75355769,1.58721154 2.75355769,3.24850962 L2.75355769,46.8600481 C2.75355769,48.5213462 4.10043269,49.8679808 5.76173077,49.8679808 L36.676875,49.8679808 C38.3381731,49.8679808 39.6850481,48.5213462 39.6850481,46.8600481" id="Fill-4" fill="#EE3E43"></path>
                <path d="M5.14382212,2.97564904 L0.363533654,2.97564904 C0.1628125,2.97564904 7.21153846e-05,3.13838942 7.21153846e-05,3.33935096 L7.21153846e-05,4.79800481 C7.21153846e-05,4.99872596 0.1628125,5.16170673 0.363533654,5.16170673 L5.14382212,5.16170673 C5.34454327,5.16170673 5.50752404,4.99872596 5.50752404,4.79800481 L5.50752404,3.33935096 C5.50752404,3.13838942 5.34454327,2.97564904 5.14382212,2.97564904" id="Fill-6" fill="#FEFEFE"></path>
                <path d="M5.14382212,7.63908654 L0.363533654,7.63908654 C0.1628125,7.63908654 7.21153846e-05,7.80182692 7.21153846e-05,8.00278846 L7.21153846e-05,9.46144231 C7.21153846e-05,9.66216346 0.1628125,9.82514423 0.363533654,9.82514423 L5.14382212,9.82514423 C5.34454327,9.82514423 5.50752404,9.66216346 5.50752404,9.46144231 L5.50752404,8.00278846 C5.50752404,7.80182692 5.34454327,7.63908654 5.14382212,7.63908654" id="Fill-8" fill="#FEFEFE"></path>
                <path d="M5.14382212,12.3025962 L0.363533654,12.3025962 C0.1628125,12.3025962 7.21153846e-05,12.4653365 7.21153846e-05,12.6662981 L7.21153846e-05,14.1249519 C7.21153846e-05,14.3256731 0.1628125,14.4886538 0.363533654,14.4886538 L5.14382212,14.4886538 C5.34454327,14.4886538 5.50752404,14.3256731 5.50752404,14.1249519 L5.50752404,12.6662981 C5.50752404,12.4653365 5.34454327,12.3025962 5.14382212,12.3025962" id="Fill-10" fill="#FEFEFE"></path>
                <path d="M5.14382212,16.9660337 L0.363533654,16.9660337 C0.1628125,16.9660337 7.21153846e-05,17.128774 7.21153846e-05,17.3297356 L7.21153846e-05,18.7883894 C7.21153846e-05,18.9891106 0.1628125,19.151851 0.363533654,19.151851 L5.14382212,19.151851 C5.34454327,19.151851 5.50752404,18.9891106 5.50752404,18.7883894 L5.50752404,17.3297356 C5.50752404,17.128774 5.34454327,16.9660337 5.14382212,16.9660337" id="Fill-12" fill="#FEFEFE"></path>
                <path d="M5.14382212,21.6295192 L0.363533654,21.6295192 C0.1628125,21.6295192 7.21153846e-05,21.7922596 7.21153846e-05,21.9932212 L7.21153846e-05,23.451875 C7.21153846e-05,23.6525962 0.1628125,23.8155769 0.363533654,23.8155769 L5.14382212,23.8155769 C5.34454327,23.8155769 5.50752404,23.6525962 5.50752404,23.451875 L5.50752404,21.9932212 C5.50752404,21.7922596 5.34454327,21.6295192 5.14382212,21.6295192" id="Fill-14" fill="#FEFEFE"></path>
                <path d="M5.14382212,26.2929567 L0.363533654,26.2929567 C0.1628125,26.2929567 7.21153846e-05,26.4556971 7.21153846e-05,26.6566587 L7.21153846e-05,28.1153125 C7.21153846e-05,28.3160337 0.1628125,28.4790144 0.363533654,28.4790144 L5.14382212,28.4790144 C5.34454327,28.4790144 5.50752404,28.3160337 5.50752404,28.1153125 L5.50752404,26.6566587 C5.50752404,26.4556971 5.34454327,26.2929567 5.14382212,26.2929567" id="Fill-16" fill="#FEFEFE"></path>
                <path d="M5.14382212,30.9564663 L0.363533654,30.9564663 C0.1628125,30.9564663 7.21153846e-05,31.1192067 7.21153846e-05,31.3201683 L7.21153846e-05,32.7788221 C7.21153846e-05,32.9795433 0.1628125,33.142524 0.363533654,33.142524 L5.14382212,33.142524 C5.34454327,33.142524 5.50752404,32.9795433 5.50752404,32.7788221 L5.50752404,31.3201683 C5.50752404,31.1192067 5.34454327,30.9564663 5.14382212,30.9564663" id="Fill-18" fill="#FEFEFE"></path>
                <path d="M5.14382212,35.6199519 L0.363533654,35.6199519 C0.1628125,35.6199519 7.21153846e-05,35.7826923 7.21153846e-05,35.9836538 L7.21153846e-05,37.4423077 C7.21153846e-05,37.6430288 0.1628125,37.8057692 0.363533654,37.8057692 L5.14382212,37.8057692 C5.34454327,37.8057692 5.50752404,37.6430288 5.50752404,37.4423077 L5.50752404,35.9836538 C5.50752404,35.7826923 5.34454327,35.6199519 5.14382212,35.6199519" id="Fill-20" fill="#FEFEFE"></path>
                <path d="M5.14382212,40.2833894 L0.363533654,40.2833894 C0.1628125,40.2833894 7.21153846e-05,40.4461298 7.21153846e-05,40.6470913 L7.21153846e-05,42.1057452 C7.21153846e-05,42.3064663 0.1628125,42.4694471 0.363533654,42.4694471 L5.14382212,42.4694471 C5.34454327,42.4694471 5.50752404,42.3064663 5.50752404,42.1057452 L5.50752404,40.6470913 C5.50752404,40.4461298 5.34454327,40.2833894 5.14382212,40.2833894" id="Fill-22" fill="#FEFEFE"></path>
                <path d="M5.14382212,44.946899 L0.363533654,44.946899 C0.1628125,44.946899 7.21153846e-05,45.1096394 7.21153846e-05,45.310601 L7.21153846e-05,46.7692548 C7.21153846e-05,46.969976 0.1628125,47.1327163 0.363533654,47.1327163 L5.14382212,47.1327163 C5.34454327,47.1327163 5.50752404,46.969976 5.50752404,46.7692548 L5.50752404,45.310601 C5.50752404,45.1096394 5.34454327,44.946899 5.14382212,44.946899" id="Fill-24" fill="#FEFEFE"></path>
                <path d="M30.48,19.1236779 L14.7124519,19.1236779 C14.3790385,19.1236779 14.1083654,18.8532452 14.1083654,18.519351 L14.1083654,14.419351 C14.1083654,14.0856971 14.3790385,13.815024 14.7124519,13.815024 L30.48,13.815024 C30.8136538,13.815024 31.0843269,14.0856971 31.0843269,14.419351 L31.0843269,18.519351 C31.0843269,18.8532452 30.8136538,19.1236779 30.48,19.1236779" id="Fill-26" fill="#FEFEFE"></path>
            </g>
        </g>
    </g>
</svg>