<?xml version="1.0" encoding="UTF-8"?>
<svg width="70px" height="70px" viewBox="0 0 70 70" version="1.1" xmlns="http://www.w3.org/2000/svg" xmlns:xlink="http://www.w3.org/1999/xlink">
    <!-- Generator: Sketch 60 (88103) - https://sketch.com -->
    <title>ic_produk_diblokir</title>
    <desc>Created with Sketch.</desc>
    <defs>
        <polygon id="path-1" points="4.54545455e-05 0.157272727 60.9806818 0.157272727 60.9806818 49.7727273 4.54545455e-05 49.7727273"></polygon>
    </defs>
    <g id="Page-2" stroke="none" stroke-width="1" fill="none" fill-rule="evenodd">
        <g id="produk_diblokir">
            <g id="Group-4" transform="translate(4.000000, 10.000000)">
                <g id="Group-3" transform="translate(-0.000000, 0.000000)">
                    <mask id="mask-2" fill="white">
                        <use xlink:href="#path-1"></use>
                    </mask>
                    <g id="Clip-2"></g>
                    <path d="M57.2525455,49.7727273 L3.72822727,49.7727273 C1.66936364,49.7727273 4.54545455e-05,48.1036364 4.54545455e-05,46.0445455 L4.54545455e-05,3.88568182 C4.54545455e-05,1.82659091 1.66936364,0.157272727 3.72822727,0.157272727 L57.2525455,0.157272727 C59.3116364,0.157272727 60.9807273,1.82659091 60.9807273,3.88568182 L60.9807273,46.0445455 C60.9807273,48.1036364 59.3116364,49.7727273 57.2525455,49.7727273" id="Fill-1" fill="#DD323E" mask="url(#mask-2)"></path>
                </g>
                <path d="M56.6253182,46.0444773 L56.6253182,3.88561364 C56.6253182,1.82652273 54.9562273,0.157431818 52.8971364,0.157431818 L3.72827273,0.157431818 C1.66918182,0.157431818 9.09090909e-05,1.82652273 9.09090909e-05,3.88561364 L9.09090909e-05,46.0444773 C9.09090909e-05,48.1035682 1.66918182,49.7726591 3.72827273,49.7726591 L52.8971364,49.7726591 C54.9562273,49.7726591 56.6253182,48.1035682 56.6253182,46.0444773" id="Fill-4" fill="#EE3E43"></path>
                <path d="M27.2167955,40.8702727 L5.00338636,40.8702727 C4.39815909,40.8702727 3.90725,41.3609545 3.90725,41.9661818 L3.90725,44.888 C3.90725,45.4932273 4.39815909,45.9836818 5.00338636,45.9836818 L27.2167955,45.9836818 C27.8220227,45.9836818 28.3127045,45.4932273 28.3127045,44.888 L28.3127045,41.9661818 C28.3127045,41.3609545 27.8220227,40.8702727 27.2167955,40.8702727" id="Fill-6" fill="#FEFEFE"></path>
                <polygon id="Fill-8" fill="#FEFEFE" points="30.4902955 0.157318182 24.8973409 0.157318182 24.8973409 13.8595909 27.6937045 11.6318636 30.4902955 13.8595909 33.2868864 11.6318636 36.08325 13.8595909 36.08325 0.157318182"></polygon>
                <path d="M52.4662727,7.99168182 C52.4662727,11.2323636 49.839,13.8596364 46.5983182,13.8596364 C43.3576364,13.8596364 40.7303636,11.2323636 40.7303636,7.99168182 C40.7303636,4.751 43.3576364,2.12372727 46.5983182,2.12372727 C49.839,2.12372727 52.4662727,4.751 52.4662727,7.99168182" id="Fill-10" fill="#FEFEFE"></path>
                <polygon id="Fill-12" fill="#EE3E43" points="48.4799091 5.3955 44.0021818 9.87322727 44.7167273 10.5877727 49.1946818 6.11027273"></polygon>
                <polygon id="Fill-14" fill="#EE3E43" points="49.1945682 9.87320455 44.7168409 5.39547727 44.0020682 6.11025 48.4797955 10.5879773"></polygon>
            </g>
        </g>
    </g>
</svg>