<?xml version="1.0" encoding="UTF-8"?>
<svg width="16px" height="16px" viewBox="0 0 16 16" version="1.1" xmlns="http://www.w3.org/2000/svg" xmlns:xlink="http://www.w3.org/1999/xlink">
    <!-- Generator: Sketch 60 (88103) - https://sketch.com -->
    <title>ic_search</title>
    <desc>Created with Sketch.</desc>
    <g id="icon" stroke="none" stroke-width="1" fill="none" fill-rule="evenodd" stroke-linecap="round" stroke-linejoin="round">
        <g id="button-search" transform="translate(-10.000000, -10.000000)" stroke="#FFFFFF" stroke-width="2">
            <g id="ic_search" transform="translate(10.000000, 10.000000)">
                <g id="search" transform="translate(1.000000, 1.000000)">
                    <circle id="Oval" cx="5.83333333" cy="5.83333333" r="5.83333333"></circle>
                    <line x1="14" y1="14" x2="9.95555556" y2="9.95555556" id="Shape"></line>
                </g>
            </g>
        </g>
    </g>
</svg>