<?xml version="1.0" encoding="UTF-8"?>
<svg width="80px" height="80px" viewBox="0 0 80 80" version="1.1" xmlns="http://www.w3.org/2000/svg" xmlns:xlink="http://www.w3.org/1999/xlink">
    <!-- Generator: Sketch 60 (88103) - https://sketch.com -->
    <title>rekanan</title>
    <desc>Created with Sketch.</desc>
    <g id="icon" stroke="none" stroke-width="1" fill="none" fill-rule="evenodd">
        <g id="rekanan">
            <path d="M0,0 L80,0 L80,80 L0,80 L0,0 Z" id="base"></path>
            <g id="Group-10" transform="translate(17.000000, 15.000000)">
                <polygon id="Fill-1" fill="#EE3E43" points="16.1792045 0.378598485 16.1792045 49.9346591 46.7773106 49.9346591 46.7773106 12.2255682 28.7917045 0.378598485"></polygon>
                <polygon id="Fill-2" fill="#FEFEFE" points="21.2719697 28.5829545 25.2094697 28.5829545 25.2094697 24.6458333 21.2719697 24.6458333"></polygon>
                <polygon id="Fill-3" fill="#FEFEFE" points="29.5094697 28.5829545 33.4469697 28.5829545 33.4469697 24.6458333 29.5094697 24.6458333"></polygon>
                <polygon id="Fill-4" fill="#FEFEFE" points="37.7465909 28.5829545 41.6840909 28.5829545 41.6840909 24.6458333 37.7465909 24.6458333"></polygon>
                <polygon id="Fill-5" fill="#FEFEFE" points="21.2719697 20.1875 25.2094697 20.1875 25.2094697 16.25 21.2719697 16.25"></polygon>
                <polygon id="Fill-6" fill="#FEFEFE" points="29.5094697 20.1875 33.4469697 20.1875 33.4469697 16.25 29.5094697 16.25"></polygon>
                <polygon id="Fill-7" fill="#FEFEFE" points="37.7465909 20.1875 41.6840909 20.1875 41.6840909 16.25 37.7465909 16.25"></polygon>
                <polygon id="Fill-8" fill="#DD323E" points="0 49.9348485 16.1787879 49.9348485 16.1787879 8.36439394 0 8.36439394"></polygon>
                <polygon id="Fill-9" fill="#FEFEFE" points="28.119697 47.7806818 34.8367424 47.7806818 34.8367424 35.044697 28.119697 35.044697"></polygon>
            </g>
        </g>
    </g>
</svg>